team-46---final-project-code
…
Calculate the average GDP and average Inequality for each country

average_gdp_values <- GDP_Inequality_dataset %>%
  group_by(Country) %>%
  summarise(Average_GDP = mean(GDP, na.rm = TRUE))
print(average_gdp_values)

# A tibble: 174 × 2
   Country     Average_GDP
   <chr>             <dbl>
 1 Afghanistan       2029.
 2 Albania          12307.
 3 Algeria          11512.
 4 Angola            6870.
 5 Argentina        23084.
 6 Armenia          11782.
 7 Australia        47646.
 8 Austria          53481.
 9 Azerbaijan       14297.
10 Bahamas          33431.
# ℹ 164 more rows

average_Inequality_values <- GDP_Inequality_dataset %>%
  group_by(Country) %>%
  summarise(Average_Inequality = mean(Inequality, na.rm = TRUE))
print(average_Inequality_values)

# A tibble: 174 × 2
   Country     Average_Inequality
   <chr>                    <dbl>
 1 Afghanistan              45.0 
 2 Albania                  12.1 
 3 Algeria                  33.6 
 4 Angola                   34.2 
 5 Argentina                 6.24
 6 Armenia                   3.31
 7 Australia                 2.84
 8 Austria                   2.97
 9 Azerbaijan                3.59
10 Bahamas                   6.92
# ℹ 164 more rows
…
